counter_unit.vcd
$version Generated by VerilatedVcd $end
$date Fri Nov 18 11:46:58 2022 $end
$timescale 1ps $end

 $scope module TOP $end
  $var wire 32 & ImmOp [31:0] $end
  $var wire 32 ' PC [31:0] $end
  $var wire  1 % PCsrc $end
  $var wire  1 # clk $end
  $var wire  1 $ rst $end
  $scope module counter $end
   $var wire 32 & ImmOp [31:0] $end
   $var wire 32 ' PC [31:0] $end
   $var wire 32 ( PC_WIDTH [31:0] $end
   $var wire  1 % PCsrc $end
   $var wire  1 # clk $end
   $var wire  1 $ rst $end
  $upscope $end
 $upscope $end
$enddefinitions $end


#0
0#
0$
0%
b00000000000000000000000000000000 &
b00000000000000000000000000000000 '
b00000000000000000000000000100000 (
#1
1#
#2
0#
1$
b00000000000000000000000001000000 &
#3
1#
#4
0#
#5
1#
#6
0#
0$
#7
1#
b00000000000000000000000000000100 '
#8
0#
#9
1#
b00000000000000000000000000001000 '
#10
0#
#11
1#
b00000000000000000000000000001100 '
#12
0#
#13
1#
b00000000000000000000000000010000 '
#14
0#
#15
1#
b00000000000000000000000000010100 '
#16
0#
#17
1#
b00000000000000000000000000011000 '
#18
0#
#19
1#
b00000000000000000000000000011100 '
#20
0#
#21
1#
b00000000000000000000000000100000 '
#22
0#
#23
1#
b00000000000000000000000000100100 '
#24
0#
#25
1#
b00000000000000000000000000101000 '
#26
0#
#27
1#
b00000000000000000000000000101100 '
#28
0#
#29
1#
b00000000000000000000000000110000 '
#30
0#
#31
1#
b00000000000000000000000000110100 '
#32
0#
#33
1#
b00000000000000000000000000111000 '
#34
0#
#35
1#
b00000000000000000000000000111100 '
#36
0#
#37
1#
b00000000000000000000000001000000 '
#38
0#
1%
#39
1#
b00000000000000000000000010000000 '
#40
0#
#41
1#
b00000000000000000000000011000000 '
#42
0#
#43
1#
b00000000000000000000000100000000 '
#44
0#
1$
#45
1#
b00000000000000000000000000000000 '
#46
0#
0$
0%
#47
1#
b00000000000000000000000000000100 '
#48
0#
#49
1#
b00000000000000000000000000001000 '
#50
0#
#51
1#
b00000000000000000000000000001100 '
#52
0#
#53
1#
b00000000000000000000000000010000 '
#54
0#
#55
1#
b00000000000000000000000000010100 '
#56
0#
#57
1#
b00000000000000000000000000011000 '
#58
0#
#59
1#
b00000000000000000000000000011100 '
#60
0#
#61
1#
b00000000000000000000000000100000 '
#62
0#
#63
1#
b00000000000000000000000000100100 '
#64
0#
#65
1#
b00000000000000000000000000101000 '
#66
0#
#67
1#
b00000000000000000000000000101100 '
#68
0#
#69
1#
b00000000000000000000000000110000 '
#70
0#
#71
1#
b00000000000000000000000000110100 '
#72
0#
#73
1#
b00000000000000000000000000111000 '
#74
0#
#75
1#
b00000000000000000000000000111100 '
#76
0#
#77
1#
b00000000000000000000000001000000 '
#78
0#
1%
#79
1#
b00000000000000000000000010000000 '
#80
0#
#81
1#
b00000000000000000000000011000000 '
#82
0#
#83
1#
b00000000000000000000000100000000 '
#84
0#
1$
#85
1#
b00000000000000000000000000000000 '
#86
0#
0$
0%
#87
1#
b00000000000000000000000000000100 '
#88
0#
#89
1#
b00000000000000000000000000001000 '
#90
0#
#91
1#
b00000000000000000000000000001100 '
#92
0#
#93
1#
b00000000000000000000000000010000 '
#94
0#
#95
1#
b00000000000000000000000000010100 '
#96
0#
#97
1#
b00000000000000000000000000011000 '
#98
0#
#99
1#
b00000000000000000000000000011100 '
#100
0#
#101
1#
b00000000000000000000000000100000 '
#102
0#
#103
1#
b00000000000000000000000000100100 '
#104
0#
#105
1#
b00000000000000000000000000101000 '
#106
0#
#107
1#
b00000000000000000000000000101100 '
#108
0#
#109
1#
b00000000000000000000000000110000 '
#110
0#
#111
1#
b00000000000000000000000000110100 '
#112
0#
#113
1#
b00000000000000000000000000111000 '
#114
0#
#115
1#
b00000000000000000000000000111100 '
#116
0#
#117
1#
b00000000000000000000000001000000 '
#118
0#
1%
#119
1#
b00000000000000000000000010000000 '
#120
0#
#121
1#
b00000000000000000000000011000000 '
#122
0#
#123
1#
b00000000000000000000000100000000 '
#124
0#
1$
#125
1#
b00000000000000000000000000000000 '
#126
0#
0$
0%
#127
1#
b00000000000000000000000000000100 '
#128
0#
#129
1#
b00000000000000000000000000001000 '
#130
0#
#131
1#
b00000000000000000000000000001100 '
#132
0#
#133
1#
b00000000000000000000000000010000 '
#134
0#
#135
1#
b00000000000000000000000000010100 '
#136
0#
#137
1#
b00000000000000000000000000011000 '
#138
0#
#139
1#
b00000000000000000000000000011100 '
#140
0#
#141
1#
b00000000000000000000000000100000 '
#142
0#
#143
1#
b00000000000000000000000000100100 '
#144
0#
#145
1#
b00000000000000000000000000101000 '
#146
0#
#147
1#
b00000000000000000000000000101100 '
#148
0#
#149
1#
b00000000000000000000000000110000 '
#150
0#
#151
1#
b00000000000000000000000000110100 '
#152
0#
#153
1#
b00000000000000000000000000111000 '
#154
0#
#155
1#
b00000000000000000000000000111100 '
#156
0#
#157
1#
b00000000000000000000000001000000 '
#158
0#
1%
#159
1#
b00000000000000000000000010000000 '
#160
0#
#161
1#
b00000000000000000000000011000000 '
#162
0#
#163
1#
b00000000000000000000000100000000 '
#164
0#
1$
#165
1#
b00000000000000000000000000000000 '
#166
0#
0$
0%
#167
1#
b00000000000000000000000000000100 '
#168
0#
#169
1#
b00000000000000000000000000001000 '
#170
0#
#171
1#
b00000000000000000000000000001100 '
#172
0#
#173
1#
b00000000000000000000000000010000 '
#174
0#
#175
1#
b00000000000000000000000000010100 '
#176
0#
#177
1#
b00000000000000000000000000011000 '
#178
0#
#179
1#
b00000000000000000000000000011100 '
#180
0#
#181
1#
b00000000000000000000000000100000 '
#182
0#
#183
1#
b00000000000000000000000000100100 '
#184
0#
#185
1#
b00000000000000000000000000101000 '
#186
0#
#187
1#
b00000000000000000000000000101100 '
#188
0#
#189
1#
b00000000000000000000000000110000 '
#190
0#
#191
1#
b00000000000000000000000000110100 '
#192
0#
#193
1#
b00000000000000000000000000111000 '
#194
0#
#195
1#
b00000000000000000000000000111100 '
#196
0#
#197
1#
b00000000000000000000000001000000 '
#198
0#
1%
#199
1#
b00000000000000000000000010000000 '
#200
0#
#201
1#
b00000000000000000000000011000000 '
#202
0#
#203
1#
b00000000000000000000000100000000 '
#204
0#
1$
#205
1#
b00000000000000000000000000000000 '
#206
0#
0$
0%
#207
1#
b00000000000000000000000000000100 '
#208
0#
#209
1#
b00000000000000000000000000001000 '
#210
0#
#211
1#
b00000000000000000000000000001100 '
#212
0#
#213
1#
b00000000000000000000000000010000 '
#214
0#
#215
1#
b00000000000000000000000000010100 '
#216
0#
#217
1#
b00000000000000000000000000011000 '
#218
0#
#219
1#
b00000000000000000000000000011100 '
#220
0#
#221
1#
b00000000000000000000000000100000 '
#222
0#
#223
1#
b00000000000000000000000000100100 '
#224
0#
#225
1#
b00000000000000000000000000101000 '
#226
0#
#227
1#
b00000000000000000000000000101100 '
#228
0#
#229
1#
b00000000000000000000000000110000 '
#230
0#
#231
1#
b00000000000000000000000000110100 '
#232
0#
#233
1#
b00000000000000000000000000111000 '
#234
0#
#235
1#
b00000000000000000000000000111100 '
#236
0#
#237
1#
b00000000000000000000000001000000 '
#238
0#
1%
#239
1#
b00000000000000000000000010000000 '
#240
0#
#241
1#
b00000000000000000000000011000000 '
#242
0#
#243
1#
b00000000000000000000000100000000 '
#244
0#
1$
#245
1#
b00000000000000000000000000000000 '
#246
0#
0$
0%
#247
1#
b00000000000000000000000000000100 '
#248
0#
#249
1#
b00000000000000000000000000001000 '
#250
0#
#251
1#
b00000000000000000000000000001100 '
#252
0#
#253
1#
b00000000000000000000000000010000 '
#254
0#
#255
1#
b00000000000000000000000000010100 '
#256
0#
#257
1#
b00000000000000000000000000011000 '
#258
0#
#259
1#
b00000000000000000000000000011100 '
#260
0#
#261
1#
b00000000000000000000000000100000 '
#262
0#
#263
1#
b00000000000000000000000000100100 '
#264
0#
#265
1#
b00000000000000000000000000101000 '
#266
0#
#267
1#
b00000000000000000000000000101100 '
#268
0#
#269
1#
b00000000000000000000000000110000 '
#270
0#
#271
1#
b00000000000000000000000000110100 '
#272
0#
#273
1#
b00000000000000000000000000111000 '
#274
0#
#275
1#
b00000000000000000000000000111100 '
#276
0#
#277
1#
b00000000000000000000000001000000 '
#278
0#
1%
#279
1#
b00000000000000000000000010000000 '
#280
0#
#281
1#
b00000000000000000000000011000000 '
#282
0#
#283
1#
b00000000000000000000000100000000 '
#284
0#
1$
#285
1#
b00000000000000000000000000000000 '
#286
0#
0$
0%
#287
1#
b00000000000000000000000000000100 '
#288
0#
#289
1#
b00000000000000000000000000001000 '
#290
0#
#291
1#
b00000000000000000000000000001100 '
#292
0#
#293
1#
b00000000000000000000000000010000 '
#294
0#
#295
1#
b00000000000000000000000000010100 '
#296
0#
#297
1#
b00000000000000000000000000011000 '
#298
0#
#299
1#
b00000000000000000000000000011100 '
#300
0#
#301
1#
b00000000000000000000000000100000 '
#302
0#
#303
1#
b00000000000000000000000000100100 '
#304
0#
#305
1#
b00000000000000000000000000101000 '
#306
0#
#307
1#
b00000000000000000000000000101100 '
#308
0#
#309
1#
b00000000000000000000000000110000 '
#310
0#
#311
1#
b00000000000000000000000000110100 '
#312
0#
#313
1#
b00000000000000000000000000111000 '
#314
0#
#315
1#
b00000000000000000000000000111100 '
#316
0#
#317
1#
b00000000000000000000000001000000 '
#318
0#
1%
#319
1#
b00000000000000000000000010000000 '
#320
0#
#321
1#
b00000000000000000000000011000000 '
#322
0#
#323
1#
b00000000000000000000000100000000 '
#324
0#
1$
#325
1#
b00000000000000000000000000000000 '
#326
0#
0$
0%
#327
1#
b00000000000000000000000000000100 '
#328
0#
#329
1#
b00000000000000000000000000001000 '
#330
0#
#331
1#
b00000000000000000000000000001100 '
#332
0#
#333
1#
b00000000000000000000000000010000 '
#334
0#
#335
1#
b00000000000000000000000000010100 '
#336
0#
#337
1#
b00000000000000000000000000011000 '
#338
0#
#339
1#
b00000000000000000000000000011100 '
#340
0#
#341
1#
b00000000000000000000000000100000 '
#342
0#
#343
1#
b00000000000000000000000000100100 '
#344
0#
#345
1#
b00000000000000000000000000101000 '
#346
0#
#347
1#
b00000000000000000000000000101100 '
#348
0#
#349
1#
b00000000000000000000000000110000 '
#350
0#
#351
1#
b00000000000000000000000000110100 '
#352
0#
#353
1#
b00000000000000000000000000111000 '
#354
0#
#355
1#
b00000000000000000000000000111100 '
#356
0#
#357
1#
b00000000000000000000000001000000 '
#358
0#
1%
#359
1#
b00000000000000000000000010000000 '
#360
0#
#361
1#
b00000000000000000000000011000000 '
#362
0#
#363
1#
b00000000000000000000000100000000 '
#364
0#
1$
#365
1#
b00000000000000000000000000000000 '
#366
0#
0$
0%
#367
1#
b00000000000000000000000000000100 '
#368
0#
#369
1#
b00000000000000000000000000001000 '
#370
0#
#371
1#
b00000000000000000000000000001100 '
#372
0#
#373
1#
b00000000000000000000000000010000 '
#374
0#
#375
1#
b00000000000000000000000000010100 '
#376
0#
#377
1#
b00000000000000000000000000011000 '
#378
0#
#379
1#
b00000000000000000000000000011100 '
#380
0#
#381
1#
b00000000000000000000000000100000 '
#382
0#
#383
1#
b00000000000000000000000000100100 '
#384
0#
#385
1#
b00000000000000000000000000101000 '
#386
0#
#387
1#
b00000000000000000000000000101100 '
#388
0#
#389
1#
b00000000000000000000000000110000 '
#390
0#
#391
1#
b00000000000000000000000000110100 '
#392
0#
#393
1#
b00000000000000000000000000111000 '
#394
0#
#395
1#
b00000000000000000000000000111100 '
#396
0#
#397
1#
b00000000000000000000000001000000 '
#398
0#
1%
#399
1#
b00000000000000000000000010000000 '
#400
0#
#401
1#
b00000000000000000000000011000000 '
#402
0#
#403
1#
b00000000000000000000000100000000 '
#404
0#
1$
#405
1#
b00000000000000000000000000000000 '
#406
0#
0$
0%
#407
1#
b00000000000000000000000000000100 '
#408
0#
#409
1#
b00000000000000000000000000001000 '
#410
0#
#411
1#
b00000000000000000000000000001100 '
#412
0#
#413
1#
b00000000000000000000000000010000 '
#414
0#
#415
1#
b00000000000000000000000000010100 '
#416
0#
#417
1#
b00000000000000000000000000011000 '
#418
0#
#419
1#
b00000000000000000000000000011100 '
#420
0#
#421
1#
b00000000000000000000000000100000 '
#422
0#
#423
1#
b00000000000000000000000000100100 '
#424
0#
#425
1#
b00000000000000000000000000101000 '
#426
0#
#427
1#
b00000000000000000000000000101100 '
#428
0#
#429
1#
b00000000000000000000000000110000 '
#430
0#
#431
1#
b00000000000000000000000000110100 '
#432
0#
#433
1#
b00000000000000000000000000111000 '
#434
0#
#435
1#
b00000000000000000000000000111100 '
#436
0#
#437
1#
b00000000000000000000000001000000 '
#438
0#
1%
#439
1#
b00000000000000000000000010000000 '
#440
0#
#441
1#
b00000000000000000000000011000000 '
#442
0#
#443
1#
b00000000000000000000000100000000 '
#444
0#
1$
#445
1#
b00000000000000000000000000000000 '
#446
0#
0$
0%
#447
1#
b00000000000000000000000000000100 '
#448
0#
#449
1#
b00000000000000000000000000001000 '
#450
0#
#451
1#
b00000000000000000000000000001100 '
#452
0#
#453
1#
b00000000000000000000000000010000 '
#454
0#
#455
1#
b00000000000000000000000000010100 '
#456
0#
#457
1#
b00000000000000000000000000011000 '
#458
0#
#459
1#
b00000000000000000000000000011100 '
#460
0#
#461
1#
b00000000000000000000000000100000 '
#462
0#
#463
1#
b00000000000000000000000000100100 '
#464
0#
#465
1#
b00000000000000000000000000101000 '
#466
0#
#467
1#
b00000000000000000000000000101100 '
#468
0#
#469
1#
b00000000000000000000000000110000 '
#470
0#
#471
1#
b00000000000000000000000000110100 '
#472
0#
#473
1#
b00000000000000000000000000111000 '
#474
0#
#475
1#
b00000000000000000000000000111100 '
#476
0#
#477
1#
b00000000000000000000000001000000 '
#478
0#
1%
#479
1#
b00000000000000000000000010000000 '
#480
0#
#481
1#
b00000000000000000000000011000000 '
#482
0#
#483
1#
b00000000000000000000000100000000 '
#484
0#
1$
#485
1#
b00000000000000000000000000000000 '
#486
0#
0$
0%
#487
1#
b00000000000000000000000000000100 '
#488
0#
#489
1#
b00000000000000000000000000001000 '
#490
0#
#491
1#
b00000000000000000000000000001100 '
#492
0#
#493
1#
b00000000000000000000000000010000 '
#494
0#
#495
1#
b00000000000000000000000000010100 '
#496
0#
#497
1#
b00000000000000000000000000011000 '
#498
0#
#499
1#
b00000000000000000000000000011100 '
#500
0#
#501
1#
b00000000000000000000000000100000 '
#502
0#
#503
1#
b00000000000000000000000000100100 '
#504
0#
#505
1#
b00000000000000000000000000101000 '
#506
0#
#507
1#
b00000000000000000000000000101100 '
#508
0#
#509
1#
b00000000000000000000000000110000 '
#510
0#
#511
1#
b00000000000000000000000000110100 '
#512
0#
#513
1#
b00000000000000000000000000111000 '
#514
0#
#515
1#
b00000000000000000000000000111100 '
#516
0#
#517
1#
b00000000000000000000000001000000 '
#518
0#
1%
#519
1#
b00000000000000000000000010000000 '
#520
0#
#521
1#
b00000000000000000000000011000000 '
#522
0#
#523
1#
b00000000000000000000000100000000 '
#524
0#
1$
#525
1#
b00000000000000000000000000000000 '
#526
0#
0$
0%
#527
1#
b00000000000000000000000000000100 '
#528
0#
#529
1#
b00000000000000000000000000001000 '
#530
0#
#531
1#
b00000000000000000000000000001100 '
#532
0#
#533
1#
b00000000000000000000000000010000 '
#534
0#
#535
1#
b00000000000000000000000000010100 '
#536
0#
#537
1#
b00000000000000000000000000011000 '
#538
0#
#539
1#
b00000000000000000000000000011100 '
#540
0#
#541
1#
b00000000000000000000000000100000 '
#542
0#
#543
1#
b00000000000000000000000000100100 '
#544
0#
#545
1#
b00000000000000000000000000101000 '
#546
0#
#547
1#
b00000000000000000000000000101100 '
#548
0#
#549
1#
b00000000000000000000000000110000 '
#550
0#
#551
1#
b00000000000000000000000000110100 '
#552
0#
#553
1#
b00000000000000000000000000111000 '
#554
0#
#555
1#
b00000000000000000000000000111100 '
#556
0#
#557
1#
b00000000000000000000000001000000 '
#558
0#
1%
#559
1#
b00000000000000000000000010000000 '
#560
0#
#561
1#
b00000000000000000000000011000000 '
#562
0#
#563
1#
b00000000000000000000000100000000 '
#564
0#
1$
#565
1#
b00000000000000000000000000000000 '
#566
0#
0$
0%
#567
1#
b00000000000000000000000000000100 '
#568
0#
#569
1#
b00000000000000000000000000001000 '
#570
0#
#571
1#
b00000000000000000000000000001100 '
#572
0#
#573
1#
b00000000000000000000000000010000 '
#574
0#
#575
1#
b00000000000000000000000000010100 '
#576
0#
#577
1#
b00000000000000000000000000011000 '
#578
0#
#579
1#
b00000000000000000000000000011100 '
#580
0#
#581
1#
b00000000000000000000000000100000 '
#582
0#
#583
1#
b00000000000000000000000000100100 '
#584
0#
#585
1#
b00000000000000000000000000101000 '
#586
0#
#587
1#
b00000000000000000000000000101100 '
#588
0#
#589
1#
b00000000000000000000000000110000 '
#590
0#
#591
1#
b00000000000000000000000000110100 '
#592
0#
#593
1#
b00000000000000000000000000111000 '
#594
0#
#595
1#
b00000000000000000000000000111100 '
#596
0#
#597
1#
b00000000000000000000000001000000 '
#598
0#
1%
#599
1#
b00000000000000000000000010000000 '
#600
0#
#601
1#
b00000000000000000000000011000000 '
#602
0#
#603
1#
b00000000000000000000000100000000 '
#604
0#
1$
#605
1#
b00000000000000000000000000000000 '
#606
0#
0$
0%
#607
1#
b00000000000000000000000000000100 '
#608
0#
#609
1#
b00000000000000000000000000001000 '
#610
0#
#611
1#
b00000000000000000000000000001100 '
#612
0#
#613
1#
b00000000000000000000000000010000 '
#614
0#
#615
1#
b00000000000000000000000000010100 '
#616
0#
#617
1#
b00000000000000000000000000011000 '
#618
0#
#619
1#
b00000000000000000000000000011100 '
#620
0#
#621
1#
b00000000000000000000000000100000 '
#622
0#
#623
1#
b00000000000000000000000000100100 '
#624
0#
#625
1#
b00000000000000000000000000101000 '
#626
0#
#627
1#
b00000000000000000000000000101100 '
#628
0#
#629
1#
b00000000000000000000000000110000 '
#630
0#
#631
1#
b00000000000000000000000000110100 '
#632
0#
#633
1#
b00000000000000000000000000111000 '
#634
0#
#635
1#
b00000000000000000000000000111100 '
#636
0#
#637
1#
b00000000000000000000000001000000 '
#638
0#
1%
#639
1#
b00000000000000000000000010000000 '
#640
0#
#641
1#
b00000000000000000000000011000000 '
#642
0#
#643
1#
b00000000000000000000000100000000 '
#644
0#
1$
#645
1#
b00000000000000000000000000000000 '
#646
0#
0$
0%
#647
1#
b00000000000000000000000000000100 '
#648
0#
#649
1#
b00000000000000000000000000001000 '
#650
0#
#651
1#
b00000000000000000000000000001100 '
#652
0#
#653
1#
b00000000000000000000000000010000 '
#654
0#
#655
1#
b00000000000000000000000000010100 '
#656
0#
#657
1#
b00000000000000000000000000011000 '
#658
0#
#659
1#
b00000000000000000000000000011100 '
#660
0#
#661
1#
b00000000000000000000000000100000 '
#662
0#
#663
1#
b00000000000000000000000000100100 '
#664
0#
#665
1#
b00000000000000000000000000101000 '
#666
0#
#667
1#
b00000000000000000000000000101100 '
#668
0#
#669
1#
b00000000000000000000000000110000 '
#670
0#
#671
1#
b00000000000000000000000000110100 '
#672
0#
#673
1#
b00000000000000000000000000111000 '
#674
0#
#675
1#
b00000000000000000000000000111100 '
#676
0#
#677
1#
b00000000000000000000000001000000 '
#678
0#
1%
#679
1#
b00000000000000000000000010000000 '
#680
0#
#681
1#
b00000000000000000000000011000000 '
#682
0#
#683
1#
b00000000000000000000000100000000 '
#684
0#
1$
#685
1#
b00000000000000000000000000000000 '
#686
0#
0$
0%
#687
1#
b00000000000000000000000000000100 '
#688
0#
#689
1#
b00000000000000000000000000001000 '
#690
0#
#691
1#
b00000000000000000000000000001100 '
#692
0#
#693
1#
b00000000000000000000000000010000 '
#694
0#
#695
1#
b00000000000000000000000000010100 '
#696
0#
#697
1#
b00000000000000000000000000011000 '
#698
0#
#699
1#
b00000000000000000000000000011100 '
#700
0#
#701
1#
b00000000000000000000000000100000 '
#702
0#
#703
1#
b00000000000000000000000000100100 '
#704
0#
#705
1#
b00000000000000000000000000101000 '
#706
0#
#707
1#
b00000000000000000000000000101100 '
#708
0#
#709
1#
b00000000000000000000000000110000 '
#710
0#
#711
1#
b00000000000000000000000000110100 '
#712
0#
#713
1#
b00000000000000000000000000111000 '
#714
0#
#715
1#
b00000000000000000000000000111100 '
#716
0#
#717
1#
b00000000000000000000000001000000 '
#718
0#
1%
#719
1#
b00000000000000000000000010000000 '
#720
0#
#721
1#
b00000000000000000000000011000000 '
#722
0#
#723
1#
b00000000000000000000000100000000 '
#724
0#
1$
#725
1#
b00000000000000000000000000000000 '
#726
0#
0$
0%
#727
1#
b00000000000000000000000000000100 '
#728
0#
#729
1#
b00000000000000000000000000001000 '
#730
0#
#731
1#
b00000000000000000000000000001100 '
#732
0#
#733
1#
b00000000000000000000000000010000 '
#734
0#
#735
1#
b00000000000000000000000000010100 '
#736
0#
#737
1#
b00000000000000000000000000011000 '
#738
0#
#739
1#
b00000000000000000000000000011100 '
#740
0#
#741
1#
b00000000000000000000000000100000 '
#742
0#
#743
1#
b00000000000000000000000000100100 '
#744
0#
#745
1#
b00000000000000000000000000101000 '
#746
0#
#747
1#
b00000000000000000000000000101100 '
#748
0#
#749
1#
b00000000000000000000000000110000 '
#750
0#
#751
1#
b00000000000000000000000000110100 '
#752
0#
#753
1#
b00000000000000000000000000111000 '
#754
0#
#755
1#
b00000000000000000000000000111100 '
#756
0#
#757
1#
b00000000000000000000000001000000 '
#758
0#
1%
#759
1#
b00000000000000000000000010000000 '
#760
0#
#761
1#
b00000000000000000000000011000000 '
#762
0#
#763
1#
b00000000000000000000000100000000 '
#764
0#
1$
#765
1#
b00000000000000000000000000000000 '
#766
0#
0$
0%
#767
1#
b00000000000000000000000000000100 '
#768
0#
#769
1#
b00000000000000000000000000001000 '
#770
0#
#771
1#
b00000000000000000000000000001100 '
#772
0#
#773
1#
b00000000000000000000000000010000 '
#774
0#
#775
1#
b00000000000000000000000000010100 '
#776
0#
#777
1#
b00000000000000000000000000011000 '
#778
0#
#779
1#
b00000000000000000000000000011100 '
#780
0#
#781
1#
b00000000000000000000000000100000 '
#782
0#
#783
1#
b00000000000000000000000000100100 '
#784
0#
#785
1#
b00000000000000000000000000101000 '
#786
0#
#787
1#
b00000000000000000000000000101100 '
#788
0#
#789
1#
b00000000000000000000000000110000 '
#790
0#
#791
1#
b00000000000000000000000000110100 '
#792
0#
#793
1#
b00000000000000000000000000111000 '
#794
0#
#795
1#
b00000000000000000000000000111100 '
#796
0#
#797
1#
b00000000000000000000000001000000 '
#798
0#
1%
#799
1#
b00000000000000000000000010000000 '
#800
0#
#801
1#
b00000000000000000000000011000000 '
#802
0#
#803
1#
b00000000000000000000000100000000 '
#804
0#
1$
#805
1#
b00000000000000000000000000000000 '
#806
0#
0$
0%
#807
1#
b00000000000000000000000000000100 '
#808
0#
#809
1#
b00000000000000000000000000001000 '
#810
0#
#811
1#
b00000000000000000000000000001100 '
#812
0#
#813
1#
b00000000000000000000000000010000 '
#814
0#
#815
1#
b00000000000000000000000000010100 '
#816
0#
#817
1#
b00000000000000000000000000011000 '
#818
0#
#819
1#
b00000000000000000000000000011100 '
#820
0#
#821
1#
b00000000000000000000000000100000 '
#822
0#
#823
1#
b00000000000000000000000000100100 '
#824
0#
#825
1#
b00000000000000000000000000101000 '
#826
0#
#827
1#
b00000000000000000000000000101100 '
#828
0#
#829
1#
b00000000000000000000000000110000 '
#830
0#
#831
1#
b00000000000000000000000000110100 '
#832
0#
#833
1#
b00000000000000000000000000111000 '
#834
0#
#835
1#
b00000000000000000000000000111100 '
#836
0#
#837
1#
b00000000000000000000000001000000 '
#838
0#
1%
#839
1#
b00000000000000000000000010000000 '
#840
0#
#841
1#
b00000000000000000000000011000000 '
#842
0#
#843
1#
b00000000000000000000000100000000 '
#844
0#
1$
#845
1#
b00000000000000000000000000000000 '
#846
0#
0$
0%
#847
1#
b00000000000000000000000000000100 '
#848
0#
#849
1#
b00000000000000000000000000001000 '
#850
0#
#851
1#
b00000000000000000000000000001100 '
#852
0#
#853
1#
b00000000000000000000000000010000 '
#854
0#
#855
1#
b00000000000000000000000000010100 '
#856
0#
#857
1#
b00000000000000000000000000011000 '
#858
0#
#859
1#
b00000000000000000000000000011100 '
#860
0#
#861
1#
b00000000000000000000000000100000 '
#862
0#
#863
1#
b00000000000000000000000000100100 '
#864
0#
#865
1#
b00000000000000000000000000101000 '
#866
0#
#867
1#
b00000000000000000000000000101100 '
#868
0#
#869
1#
b00000000000000000000000000110000 '
#870
0#
#871
1#
b00000000000000000000000000110100 '
#872
0#
#873
1#
b00000000000000000000000000111000 '
#874
0#
#875
1#
b00000000000000000000000000111100 '
#876
0#
#877
1#
b00000000000000000000000001000000 '
#878
0#
1%
#879
1#
b00000000000000000000000010000000 '
#880
0#
#881
1#
b00000000000000000000000011000000 '
#882
0#
#883
1#
b00000000000000000000000100000000 '
#884
0#
1$
#885
1#
b00000000000000000000000000000000 '
#886
0#
0$
0%
#887
1#
b00000000000000000000000000000100 '
#888
0#
#889
1#
b00000000000000000000000000001000 '
#890
0#
#891
1#
b00000000000000000000000000001100 '
#892
0#
#893
1#
b00000000000000000000000000010000 '
#894
0#
#895
1#
b00000000000000000000000000010100 '
#896
0#
#897
1#
b00000000000000000000000000011000 '
#898
0#
#899
1#
b00000000000000000000000000011100 '
#900
0#
#901
1#
b00000000000000000000000000100000 '
#902
0#
#903
1#
b00000000000000000000000000100100 '
#904
0#
#905
1#
b00000000000000000000000000101000 '
#906
0#
#907
1#
b00000000000000000000000000101100 '
#908
0#
#909
1#
b00000000000000000000000000110000 '
#910
0#
#911
1#
b00000000000000000000000000110100 '
#912
0#
#913
1#
b00000000000000000000000000111000 '
#914
0#
#915
1#
b00000000000000000000000000111100 '
#916
0#
#917
1#
b00000000000000000000000001000000 '
#918
0#
1%
#919
1#
b00000000000000000000000010000000 '
#920
0#
#921
1#
b00000000000000000000000011000000 '
#922
0#
#923
1#
b00000000000000000000000100000000 '
#924
0#
1$
#925
1#
b00000000000000000000000000000000 '
#926
0#
0$
0%
#927
1#
b00000000000000000000000000000100 '
#928
0#
#929
1#
b00000000000000000000000000001000 '
#930
0#
#931
1#
b00000000000000000000000000001100 '
#932
0#
#933
1#
b00000000000000000000000000010000 '
#934
0#
#935
1#
b00000000000000000000000000010100 '
#936
0#
#937
1#
b00000000000000000000000000011000 '
#938
0#
#939
1#
b00000000000000000000000000011100 '
#940
0#
#941
1#
b00000000000000000000000000100000 '
#942
0#
#943
1#
b00000000000000000000000000100100 '
#944
0#
#945
1#
b00000000000000000000000000101000 '
#946
0#
#947
1#
b00000000000000000000000000101100 '
#948
0#
#949
1#
b00000000000000000000000000110000 '
#950
0#
#951
1#
b00000000000000000000000000110100 '
#952
0#
#953
1#
b00000000000000000000000000111000 '
#954
0#
#955
1#
b00000000000000000000000000111100 '
#956
0#
#957
1#
b00000000000000000000000001000000 '
#958
0#
1%
#959
1#
b00000000000000000000000010000000 '
#960
0#
#961
1#
b00000000000000000000000011000000 '
#962
0#
#963
1#
b00000000000000000000000100000000 '
#964
0#
1$
#965
1#
b00000000000000000000000000000000 '
#966
0#
0$
0%
#967
1#
b00000000000000000000000000000100 '
#968
0#
#969
1#
b00000000000000000000000000001000 '
#970
0#
#971
1#
b00000000000000000000000000001100 '
#972
0#
#973
1#
b00000000000000000000000000010000 '
#974
0#
#975
1#
b00000000000000000000000000010100 '
#976
0#
#977
1#
b00000000000000000000000000011000 '
#978
0#
#979
1#
b00000000000000000000000000011100 '
#980
0#
#981
1#
b00000000000000000000000000100000 '
#982
0#
#983
1#
b00000000000000000000000000100100 '
#984
0#
#985
1#
b00000000000000000000000000101000 '
#986
0#
#987
1#
b00000000000000000000000000101100 '
#988
0#
#989
1#
b00000000000000000000000000110000 '
#990
0#
#991
1#
b00000000000000000000000000110100 '
#992
0#
#993
1#
b00000000000000000000000000111000 '
#994
0#
#995
1#
b00000000000000000000000000111100 '
#996
0#
#997
1#
b00000000000000000000000001000000 '
#998
0#
1%
#999
1#
b00000000000000000000000010000000 '
#1000
0#
#1001
1#
b00000000000000000000000011000000 '
#1002
0#
#1003
1#
b00000000000000000000000100000000 '
#1004
0#
1$
#1005
1#
b00000000000000000000000000000000 '
#1006
0#
0$
0%
#1007
1#
b00000000000000000000000000000100 '
#1008
0#
#1009
1#
b00000000000000000000000000001000 '
#1010
0#
#1011
1#
b00000000000000000000000000001100 '
#1012
0#
#1013
1#
b00000000000000000000000000010000 '
#1014
0#
#1015
1#
b00000000000000000000000000010100 '
#1016
0#
#1017
1#
b00000000000000000000000000011000 '
#1018
0#
#1019
1#
b00000000000000000000000000011100 '
#1020
0#
#1021
1#
b00000000000000000000000000100000 '
#1022
0#
#1023
1#
b00000000000000000000000000100100 '
#1024
0#
#1025
1#
b00000000000000000000000000101000 '
#1026
0#
#1027
1#
b00000000000000000000000000101100 '
#1028
0#
#1029
1#
b00000000000000000000000000110000 '
#1030
0#
#1031
1#
b00000000000000000000000000110100 '
#1032
0#
#1033
1#
b00000000000000000000000000111000 '
#1034
0#
#1035
1#
b00000000000000000000000000111100 '
#1036
0#
#1037
1#
b00000000000000000000000001000000 '
#1038
0#
1%
#1039
1#
b00000000000000000000000010000000 '
#1040
0#
#1041
1#
b00000000000000000000000011000000 '
#1042
0#
#1043
1#
b00000000000000000000000100000000 '
#1044
0#
1$
#1045
1#
b00000000000000000000000000000000 '
#1046
0#
0$
0%
#1047
1#
b00000000000000000000000000000100 '
#1048
0#
#1049
1#
b00000000000000000000000000001000 '
#1050
0#
#1051
1#
b00000000000000000000000000001100 '
#1052
0#
#1053
1#
b00000000000000000000000000010000 '
#1054
0#
#1055
1#
b00000000000000000000000000010100 '
#1056
0#
#1057
1#
b00000000000000000000000000011000 '
#1058
0#
